[
    {
        "id":1,
        "title_quiz": "Тест на знание вычитания",
        "question":"У Ани было три яблока, два яблока она съела. Сколько яблок осталось у Ани?",
        "answer":1
    },
    {
        "id":2,
        "title_quiz": "Тест на знание сложения",
        "question":"У Васи было пять наклеек, две наклейки Петя подарил Васе и еще три наклейки Вася нашел.Сколько наклеек у Васи?",
        "answer":10
    },
    {
        "id":3,
        "title_quiz": "Тест на знание умножения",
        "question":"Катя захотела купить себе два мороженных. Мороженное стоит 30 рублей. Сколько Катя должна потратить денег для покупки мороженного?",
        "answer":60
    },
    {
        "id":6,
        "title_quiz": "Тест на знание деления",
        "question":"На переправе 10 зайцев поровну разместились в двух лодках. Сколько зайцев село в каждую лодку?",
        "answer":5
    }
]